ST 558 - Homework 4
…
Task 3: Querying an API and a Tidy-Style Function

In this task, we will be connecting to the news API and finding information about a topic that I am interested in that has been in the news. We will then take that information, and parse it into a data frame that has the actual article information in it (First column should be a list column). Finally, we will write a function that allows the user to query this API. Inputs of this function should be the title/subject to search for (string), a time period to search from (string), and an API key.

First off, let us find a topic we are interested in and put all articles into a data frame.

URL_news <- "https://newsapi.org/v2/everything?q=tesla&from=2024-05-25&apiKey=de938e3dab06485f95610e066abe3773"

data <- httr::GET(URL_news)

parsed <- fromJSON(rawToChar(data$content))
data <- as_tibble(parsed$articles)
data

# A tibble: 100 × 8
   source$id $name author title description url   urlToImage publishedAt content
   <chr>     <chr> <chr>  <chr> <chr>       <chr> <chr>      <chr>       <chr>  
 1 wired     Wired Aaria… Tesl… Elon Musk … http… https://m… 2024-06-13… "Under…
 2 <NA>      [Rem… <NA>   [Rem… [Removed]   http… <NA>       1970-01-01… "[Remo…
 3 <NA>      Yaho… Sarah… Tesl… Tesla is n… http… <NA>       2024-05-31… "If yo…
 4 wired     Wired Boone… Thin… Plus: Wils… http… https://m… 2024-06-08… "Each …
 5 <NA>      Gizm… Colli… New … The Tesla … http… https://i… 2024-05-28… "The T…
 6 business… Busi… Ana A… Tesl… Tesla is a… http… https://i… 2024-06-06… "Tesla…
 7 ars-tech… Ars … Jonat… Nvid… The Tesla … http… https://c… 2024-06-04… "Enlar…
 8 the-verge The … Andre… The … The 2024 J… http… https://c… 2024-05-30… "ByAnd…
 9 <NA>      [Rem… <NA>   [Rem… [Removed]   http… <NA>       1970-01-01… "[Remo…
10 <NA>      [Rem… <NA>   [Rem… [Removed]   http… <NA>       1970-01-01… "[Remo…
# ℹ 90 more rows
…
  data <- httr::GET(url)
  parsed <- fromJSON(rawToChar(data$content))
  data <- as_tibble(parsed$articles)
  return(data)
  
}

Now, we will run our function twice, to make sure it works.

API_function(topic = "tesla", time = "2024-05-25",
             apikey = "de938e3dab06485f95610e066abe3773")

# A tibble: 100 × 8
   source$id $name author title description url   urlToImage publishedAt content
   <chr>     <chr> <chr>  <chr> <chr>       <chr> <chr>      <chr>       <chr>  
 1 wired     Wired Aaria… Tesl… Elon Musk … http… https://m… 2024-06-13… "Under…
 2 <NA>      [Rem… <NA>   [Rem… [Removed]   http… <NA>       1970-01-01… "[Remo…
 3 <NA>      Yaho… Sarah… Tesl… Tesla is n… http… <NA>       2024-05-31… "If yo…
 4 wired     Wired Boone… Thin… Plus: Wils… http… https://m… 2024-06-08… "Each …
 5 <NA>      Gizm… Colli… New … The Tesla … http… https://i… 2024-05-28… "The T…
 6 business… Busi… Ana A… Tesl… Tesla is a… http… https://i… 2024-06-06… "Tesla…
 7 ars-tech… Ars … Jonat… Nvid… The Tesla … http… https://c… 2024-06-04… "Enlar…
 8 the-verge The … Andre… The … The 2024 J… http… https://c… 2024-05-30… "ByAnd…
 9 <NA>      [Rem… <NA>   [Rem… [Removed]   http… <NA>       1970-01-01… "[Remo…
10 <NA>      [Rem… <NA>   [Rem… [Removed]   http… <NA>       1970-01-01… "[Remo…
# ℹ 90 more rows

API_function(topic = "apple", time = "2024-06-10",
             apikey = "de938e3dab06485f95610e066abe3773")

# A tibble: 100 × 8
   source$id $name author title description url   urlToImage publishedAt content
   <chr>     <chr> <chr>  <chr> <chr>       <chr> <chr>      <chr>       <chr>  
 1 <NA>      [Rem… <NA>   [Rem… [Removed]   http… <NA>       1970-01-01… "[Remo…
 2 <NA>      [Rem… <NA>   [Rem… [Removed]   http… <NA>       1970-01-01… "[Remo…
 3 <NA>      Yaho… Valen… WWDC… Today's ke… http… <NA>       2024-06-10… "If yo…
 4 <NA>      [Rem… <NA>   [Rem… [Removed]   http… <NA>       1970-01-01… "[Remo…
 5 <NA>      [Rem… <NA>   [Rem… [Removed]   http… <NA>       1970-01-01… "[Remo…
 6 <NA>      [Rem… <NA>   [Rem… [Removed]   http… <NA>       1970-01-01… "[Remo…
 7 the-verge The … Emma … Tim … In an inte… http… https://c… 2024-06-11… "Tim C…
 8 <NA>      [Rem… <NA>   [Rem… [Removed]   http… <NA>       1970-01-01… "[Remo…
 9 <NA>      [Rem… <NA>   [Rem… [Removed]   http… <NA>       1970-01-01… "[Remo…
10 wired     Wired Will … Appl… Other tech… http… https://m… 2024-06-13… "Apple…
# ℹ 90 more rows
